tarea5/conductualRobin/testT5.vcd
$date
	Fri Sep  8 23:09:22 2017
$end
$version
	Icarus Verilog
$end
$timescale
	1ps
$end
$scope module BUF $end
$var wire 1 ! A $end
$var wire 1 " Y $end
$upscope $end
$scope module DFFSR $end
$var wire 1 # C $end
$var wire 1 $ D $end
$var wire 1 % R $end
$var wire 1 & S $end
$var reg 1 ' Q $end
$upscope $end
$scope module testregistro4bits $end
$var wire 1 ( s_oute $end
$var wire 1 ) s_outc $end
$var wire 4 * qe [3:0] $end
$var wire 4 + qc [3:0] $end
$var reg 1 , clk $end
$var reg 4 - d [3:0] $end
$var reg 1 . dir $end
$var reg 1 / enb $end
$var reg 2 0 modo [1:0] $end
$var reg 1 1 s_in $end
$scope module conductual $end
$var wire 1 , CLK $end
$var wire 4 2 D [3:0] $end
$var wire 1 . DIR $end
$var wire 1 / ENB $end
$var wire 2 3 MODE [1:0] $end
$var wire 1 1 S_IN $end
$var reg 4 4 Q [3:0] $end
$var reg 1 ) S_OUT $end
$upscope $end
$scope module estructural $end
$var wire 1 , CLK $end
$var wire 4 5 D [3:0] $end
$var wire 1 . DIR $end
$var wire 1 / ENB $end
$var wire 2 6 MODE [1:0] $end
$var wire 1 1 S_IN $end
$var wire 1 7 _068_ $end
$var wire 1 8 _067_ $end
$var wire 1 9 _066_ $end
$var wire 1 : _065_ $end
$var wire 1 ; _064_ $end
$var wire 1 < _063_ $end
$var wire 1 = _062_ $end
$var wire 1 > _061_ $end
$var wire 1 ? _060_ $end
$var wire 1 @ _059_ $end
$var wire 1 A _058_ $end
$var wire 1 B _057_ $end
$var wire 1 C _056_ $end
$var wire 1 D _055_ $end
$var wire 1 E _054_ $end
$var wire 1 F _053_ $end
$var wire 1 G _052_ $end
$var wire 1 H _051_ $end
$var wire 1 I _050_ $end
$var wire 1 J _049_ $end
$var wire 1 K _048_ $end
$var wire 1 L _047_ $end
$var wire 1 M _046_ $end
$var wire 1 N _045_ $end
$var wire 1 O _044_ $end
$var wire 1 P _043_ $end
$var wire 1 Q _042_ $end
$var wire 1 R _041_ $end
$var wire 1 S _040_ $end
$var wire 1 T _039_ $end
$var wire 1 U _038_ $end
$var wire 1 V _037_ $end
$var wire 1 W _036_ $end
$var wire 1 X _035_ $end
$var wire 1 Y _034_ $end
$var wire 1 Z _033_ $end
$var wire 1 [ _032_ $end
$var wire 1 \ _031_ $end
$var wire 1 ] _030_ $end
$var wire 1 ^ _029_ $end
$var wire 1 _ _028_ $end
$var wire 1 ` _027_ $end
$var wire 1 a _026_ $end
$var wire 1 b _025_ $end
$var wire 1 c _024_ $end
$var wire 1 d _023_ $end
$var wire 1 e _022_ $end
$var wire 1 f _021_ $end
$var wire 1 g _020_ $end
$var wire 1 h _019_ $end
$var wire 1 i _018_ $end
$var wire 1 j _017_ $end
$var wire 1 k _016_ $end
$var wire 1 l _015_ $end
$var wire 1 m _014_ $end
$var wire 1 n _013_ $end
$var wire 1 o _012_ $end
$var wire 1 p _011_ $end
$var wire 1 q _010_ $end
$var wire 1 r _009_ $end
$var wire 1 s _008_ $end
$var wire 1 t _007_ $end
$var wire 1 u _006_ $end
$var wire 1 v _005_ $end
$var wire 1 w _004_ $end
$var wire 1 x _003_ $end
$var wire 1 y _002_ $end
$var wire 1 z _001_ $end
$var wire 4 { _000_ [3:0] $end
$var wire 1 ( S_OUT $end
$var wire 4 | Q [3:0] $end
$scope module _069_ $end
$var wire 1 / A $end
$var wire 1 y Y $end
$upscope $end
$scope module _070_ $end
$var wire 1 y A $end
$var wire 1 } B $end
$var wire 1 x Y $end
$upscope $end
$scope module _071_ $end
$var wire 1 . A $end
$var wire 1 w Y $end
$upscope $end
$scope module _072_ $end
$var wire 1 w A $end
$var wire 1 ~ B $end
$var wire 1 v Y $end
$upscope $end
$scope module _073_ $end
$var wire 1 !" A $end
$var wire 1 . B $end
$var wire 1 u Y $end
$upscope $end
$scope module _074_ $end
$var wire 1 u A $end
$var wire 1 v B $end
$var wire 1 t Y $end
$upscope $end
$scope module _075_ $end
$var wire 1 "" A $end
$var wire 1 s Y $end
$upscope $end
$scope module _076_ $end
$var wire 1 s A $end
$var wire 1 #" B $end
$var wire 1 r Y $end
$upscope $end
$scope module _077_ $end
$var wire 1 r A $end
$var wire 1 t B $end
$var wire 1 q Y $end
$upscope $end
$scope module _078_ $end
$var wire 1 $" A $end
$var wire 1 p Y $end
$upscope $end
$scope module _079_ $end
$var wire 1 . A $end
$var wire 1 p B $end
$var wire 1 o Y $end
$upscope $end
$scope module _080_ $end
$var wire 1 1 A $end
$var wire 1 n Y $end
$upscope $end
$scope module _081_ $end
$var wire 1 w A $end
$var wire 1 n B $end
$var wire 1 m Y $end
$upscope $end
$scope module _082_ $end
$var wire 1 m A $end
$var wire 1 o B $end
$var wire 1 l Y $end
$upscope $end
$scope module _083_ $end
$var wire 1 l A $end
$var wire 1 %" B $end
$var wire 1 k Y $end
$upscope $end
$scope module _084_ $end
$var wire 1 s A $end
$var wire 1 &" B $end
$var wire 1 j Y $end
$upscope $end
$scope module _085_ $end
$var wire 1 '" A $end
$var wire 1 (" B $end
$var wire 1 i Y $end
$upscope $end
$scope module _086_ $end
$var wire 1 i A $end
$var wire 1 j B $end
$var wire 1 h Y $end
$upscope $end
$scope module _087_ $end
$var wire 1 h A $end
$var wire 1 k B $end
$var wire 1 g Y $end
$upscope $end
$scope module _088_ $end
$var wire 1 g A $end
$var wire 1 q B $end
$var wire 1 f Y $end
$upscope $end
$scope module _089_ $end
$var wire 1 j A $end
$var wire 1 )" B $end
$var wire 1 e Y $end
$upscope $end
$scope module _090_ $end
$var wire 1 e A $end
$var wire 1 y B $end
$var wire 1 d Y $end
$upscope $end
$scope module _091_ $end
$var wire 1 d A $end
$var wire 1 f B $end
$var wire 1 c Y $end
$upscope $end
$scope module _092_ $end
$var wire 1 c A $end
$var wire 1 x B $end
$var wire 1 *" Y $end
$upscope $end
$scope module _093_ $end
$var wire 1 y A $end
$var wire 1 +" B $end
$var wire 1 b Y $end
$upscope $end
$scope module _094_ $end
$var wire 1 ," A $end
$var wire 1 . B $end
$var wire 1 a Y $end
$upscope $end
$scope module _095_ $end
$var wire 1 -" A $end
$var wire 1 w B $end
$var wire 1 ` Y $end
$upscope $end
$scope module _096_ $end
$var wire 1 ` A $end
$var wire 1 a B $end
$var wire 1 _ Y $end
$upscope $end
$scope module _097_ $end
$var wire 1 _ A $end
$var wire 1 r B $end
$var wire 1 ^ Y $end
$upscope $end
$scope module _098_ $end
$var wire 1 ." A $end
$var wire 1 /" B $end
$var wire 1 ] Y $end
$upscope $end
$scope module _099_ $end
$var wire 1 ] A $end
$var wire 1 \ Y $end
$upscope $end
$scope module _100_ $end
$var wire 1 0" A $end
$var wire 1 [ Y $end
$upscope $end
$scope module _101_ $end
$var wire 1 [ A $end
$var wire 1 w B $end
$var wire 1 Z Y $end
$upscope $end
$scope module _102_ $end
$var wire 1 . A $end
$var wire 1 n B $end
$var wire 1 Y Y $end
$upscope $end
$scope module _103_ $end
$var wire 1 Y A $end
$var wire 1 Z B $end
$var wire 1 X Y $end
$upscope $end
$scope module _104_ $end
$var wire 1 X A $end
$var wire 1 \ B $end
$var wire 1 W Y $end
$upscope $end
$scope module _105_ $end
$var wire 1 1" A $end
$var wire 1 2" B $end
$var wire 1 V Y $end
$upscope $end
$scope module _106_ $end
$var wire 1 V A $end
$var wire 1 j B $end
$var wire 1 U Y $end
$upscope $end
$scope module _107_ $end
$var wire 1 U A $end
$var wire 1 W B $end
$var wire 1 T Y $end
$upscope $end
$scope module _108_ $end
$var wire 1 T A $end
$var wire 1 ^ B $end
$var wire 1 S Y $end
$upscope $end
$scope module _109_ $end
$var wire 1 j A $end
$var wire 1 3" B $end
$var wire 1 R Y $end
$upscope $end
$scope module _110_ $end
$var wire 1 R A $end
$var wire 1 y B $end
$var wire 1 Q Y $end
$upscope $end
$scope module _111_ $end
$var wire 1 Q A $end
$var wire 1 S B $end
$var wire 1 P Y $end
$upscope $end
$scope module _112_ $end
$var wire 1 P A $end
$var wire 1 b B $end
$var wire 1 4" Y $end
$upscope $end
$scope module _113_ $end
$var wire 1 5" A $end
$var wire 1 6" B $end
$var wire 1 O Y $end
$upscope $end
$scope module _114_ $end
$var wire 1 O A $end
$var wire 1 / B $end
$var wire 1 N Y $end
$upscope $end
$scope module _115_ $end
$var wire 1 N A $end
$var wire 1 7" B $end
$var wire 1 M Y $end
$upscope $end
$scope module _116_ $end
$var wire 1 j A $end
$var wire 1 L Y $end
$upscope $end
$scope module _117_ $end
$var wire 1 L A $end
$var wire 1 8" B $end
$var wire 1 K Y $end
$upscope $end
$scope module _118_ $end
$var wire 1 9" A $end
$var wire 1 J Y $end
$upscope $end
$scope module _119_ $end
$var wire 1 :" A $end
$var wire 1 . B $end
$var wire 1 I Y $end
$upscope $end
$scope module _120_ $end
$var wire 1 w A $end
$var wire 1 ;" B $end
$var wire 1 H Y $end
$upscope $end
$scope module _121_ $end
$var wire 1 H A $end
$var wire 1 I B $end
$var wire 1 G Y $end
$upscope $end
$scope module _122_ $end
$var wire 1 G A $end
$var wire 1 J B $end
$var wire 1 F Y $end
$upscope $end
$scope module _123_ $end
$var wire 1 F A $end
$var wire 1 K B $end
$var wire 1 E Y $end
$upscope $end
$scope module _124_ $end
$var wire 1 E A $end
$var wire 1 / B $end
$var wire 1 D Y $end
$upscope $end
$scope module _125_ $end
$var wire 1 D A $end
$var wire 1 M B $end
$var wire 1 <" Y $end
$upscope $end
$scope module _126_ $end
$var wire 1 N A $end
$var wire 1 =" B $end
$var wire 1 C Y $end
$upscope $end
$scope module _127_ $end
$var wire 1 L A $end
$var wire 1 >" B $end
$var wire 1 B Y $end
$upscope $end
$scope module _128_ $end
$var wire 1 [ A $end
$var wire 1 w B $end
$var wire 1 A Y $end
$upscope $end
$scope module _129_ $end
$var wire 1 ?" A $end
$var wire 1 w B $end
$var wire 1 @ Y $end
$upscope $end
$scope module _130_ $end
$var wire 1 @ A $end
$var wire 1 @" B $end
$var wire 1 ? Y $end
$upscope $end
$scope module _131_ $end
$var wire 1 ? A $end
$var wire 1 A B $end
$var wire 1 > Y $end
$upscope $end
$scope module _132_ $end
$var wire 1 > A $end
$var wire 1 B B $end
$var wire 1 = Y $end
$upscope $end
$scope module _133_ $end
$var wire 1 = A $end
$var wire 1 / B $end
$var wire 1 < Y $end
$upscope $end
$scope module _134_ $end
$var wire 1 < A $end
$var wire 1 C B $end
$var wire 1 A" Y $end
$upscope $end
$scope module _135_ $end
$var wire 1 \ A $end
$var wire 1 y B $end
$var wire 1 ; Y $end
$upscope $end
$scope module _136_ $end
$var wire 1 ; A $end
$var wire 1 : Y $end
$var wire 1 ( B $end
$upscope $end
$scope module _137_ $end
$var wire 1 ; A $end
$var wire 1 9 Y $end
$upscope $end
$scope module _138_ $end
$var wire 1 ` A $end
$var wire 1 u B $end
$var wire 1 8 Y $end
$upscope $end
$scope module _139_ $end
$var wire 1 8 A $end
$var wire 1 9 B $end
$var wire 1 7 Y $end
$upscope $end
$scope module _140_ $end
$var wire 1 7 A $end
$var wire 1 : B $end
$var wire 1 z Y $end
$upscope $end
$scope module _141_ $end
$var wire 1 , C $end
$var wire 1 B" D $end
$var reg 1 C" Q $end
$upscope $end
$scope module _142_ $end
$var wire 1 , C $end
$var wire 1 D" D $end
$var reg 1 E" Q $end
$upscope $end
$scope module _143_ $end
$var wire 1 , C $end
$var wire 1 F" D $end
$var reg 1 G" Q $end
$upscope $end
$scope module _144_ $end
$var wire 1 , C $end
$var wire 1 H" D $end
$var reg 1 I" Q $end
$upscope $end
$scope module _145_ $end
$var wire 1 , C $end
$var wire 1 z D $end
$var reg 1 ( Q $end
$upscope $end
$upscope $end
$upscope $end
$enddefinitions $end
#0
$dumpvars
xI"
xH"
xG"
xF"
xE"
xD"
xC"
xB"
xA"
x@"
x?"
x>"
x="
x<"
x;"
x:"
x9"
x8"
x7"
x6"
x5"
x4"
x3"
x2"
x1"
x0"
x/"
x."
x-"
x,"
x+"
x*"
x)"
x("
x'"
x&"
x%"
x$"
x#"
x""
x!"
x~
x}
bx |
bx {
xz
xy
xx
xw
xv
xu
xt
xs
xr
xq
xp
xo
xn
xm
xl
xk
xj
xi
xh
xg
xf
xe
xd
xc
xb
xa
x`
x_
x^
x]
x\
x[
xZ
xY
xX
xW
xV
xU
xT
xS
xR
xQ
xP
xO
xN
xM
xL
xK
xJ
xI
xH
xG
xF
xE
xD
xC
xB
xA
x@
x?
x>
x=
x<
x;
x:
x9
x8
x7
bx 6
bx 5
bx 4
bx 3
bx 2
x1
bx 0
x/
x.
bx -
x,
bx +
bx *
x)
x(
x'
z&
z%
z$
z#
z"
z!
$end
#50000
0,
#52200
1q
1^
1K
1B
0e
0R
0h
0U
0r
0L
0\
1j
1i
1]
1V
1O
1s
1J
0""
0#"
0%"
0&"
0("
0."
0/"
02"
05"
06"
09"
0@"
b0 0
b0 3
b0 6
1,
#69600
0,
#87000
0H"
0B"
0F"
0*"
04"
0D"
0A"
b0 {
0<"
1c
1P
1f
07
1S
1<
1D
0g
0T
0=
0W
0E
1e
1R
1h
1U
1>
x:
1L
1\
1F
19
1M
1C
0j
xi
0]
xV
0?
1x
0d
1b
0Q
0;
0J
0N
0)"
03"
08"
0>"
1#"
1&"
1("
1/"
12"
16"
19"
1@"
0y
b0 -
b0 2
b0 5
b10 0
b10 3
b10 6
1/
1,
#104400
0,
#121800
0t
0_
08
0Z
0o
1V
1u
1a
1v
1`
1i
1[
1p
0:"
01"
0+"
0!"
07"
00"
0,"
0="
0;"
0$"
0~
0?"
0-"
0'"
0}
0C"
0E"
0G"
b0 *
b0 |
0I"
b0 +
b0 4
1,
#139200
0,
#156600
1B"
b1 {
14"
0P
1Q
0R
13"
b1 -
b1 2
b1 5
1,
#174000
0,
#191400
xt
x8
0I
0V
xu
1:"
11"
1+"
1!"
b1 *
b1 |
1C"
b1 +
b1 4
1,
#208800
0,
#226200
0B"
1D"
04"
b10 {
1<"
1P
0D
0Q
1E
1R
0K
03"
18"
b10 -
b10 2
b10 5
1,
#243600
0,
#261000
0t
08
x_
xZ
1A
xI
1V
1u
xa
0[
0:"
01"
0+"
0!"
17"
10"
1,"
0C"
b10 *
b10 |
1E"
b10 +
b10 4
1,
#278400
0,
#295800
0D"
1F"
0<"
b100 {
1A"
1D
0<
0E
1=
1K
0B
08"
1>"
b100 -
b100 2
b100 5
1,
#313200
0,
#330600
0_
xt
0Z
xA
xo
1a
0H
xv
1[
0p
07"
00"
0,"
1="
1;"
1$"
1~
0E"
b100 *
b100 |
1G"
b100 +
b100 4
1,
#348000
0,
#365400
1H"
0F"
1*"
b1000 {
0A"
0c
1<
1d
0=
0e
1B
1)"
0>"
b1000 -
b1000 2
b1000 5
1,
#382800
0,
#400200
0t
x_
x8
0o
xH
1v
0@
x`
0i
1p
0="
0;"
0$"
0~
1?"
1-"
1'"
1}
0G"
b1000 *
b1000 |
1I"
b1000 +
b1000 4
1,
#417600
0,
#435000
0H"
b0 {
0*"
1c
0d
1e
0)"
b0 -
b0 2
b0 5
1,
#452400
0,
#469800
0_
08
x@
1`
1i
0?"
0-"
0'"
0}
b0 *
b0 |
0I"
b0 +
b0 4
1,
#487200
0,
#504600
1B"
b1 {
14"
0P
1Q
0R
13"
b1 -
b1 2
b1 5
1,
#522000
0,
#539400
xt
x8
0I
0V
xu
1:"
11"
1+"
1!"
b1 *
b1 |
1C"
b1 +
b1 4
1,
#556800
0,
#574200
1D"
b11 {
1<"
0D
1E
0K
18"
b11 -
b11 2
b11 5
1,
#591600
0,
#609000
x_
xZ
1A
xa
0[
17"
10"
1,"
b11 *
b11 |
1E"
b11 +
b11 4
1,
#626400
0,
#643800
1F"
b111 {
1A"
0<
1=
0B
1>"
b111 -
b111 2
b111 5
1,
#661200
0,
#678600
1G
xo
0H
xv
0p
1="
1;"
1$"
1~
b111 *
b111 |
1G"
b111 +
b111 4
1,
#696000
0,
#713400
1H"
b1111 {
1*"
0c
1d
0e
1)"
b1111 -
b1111 2
b1111 5
1,
#730800
0,
#748200
0@
x`
0i
1?"
1-"
1'"
1}
b1111 *
b1111 |
1I"
b1111 +
b1111 4
1,
#765600
0,
#783000
1,
#800400
0,
#817800
1,
#835200
0,
#852600
1,
#870000
0,
#887400
1,
#904800
0,
#922200
1z
1H"
0B"
1D"
1F"
1f
0S
1*"
04"
1<"
b1110 {
1A"
0:
0g
09
1T
0c
1P
0D
0<
1k
0W
1;
1t
1_
18
1X
0h
0U
0>
1d
1Q
1E
1=
0l
0L
0\
0F
0Y
0v
0m
0`
0Z
1j
1i
1]
1V
1?
0e
0R
1K
1B
1u
1o
1a
1J
1n
1w
0#"
0&"
0("
0/"
02"
06"
09"
0@"
z)"
z3"
z8"
z>"
01
0.
b0 0
b0 3
b0 6
bz -
bz 2
bz 5
1,
#939600
0,
#957000
0D"
b1100 {
0<"
1D
0E
1F
0G
1I
0:"
01"
0+"
0!"
b1110 *
b1110 |
0C"
1(
b1110 +
b1110 4
1)
1,
#974400
0,
#991800
0F"
b1000 {
0A"
1<
0=
1>
0A
1[
07"
00"
0,"
b1100 +
b1100 4
b1100 *
b1100 |
0E"
1,
#1009200
0,
#1026600
0H"
b0 {
0*"
1c
0f
1g
0k
1l
0t
0o
1v
1p
0="
0;"
0$"
0~
b1000 *
b1000 |
0G"
b1000 +
b1000 4
1,
#1044000
0,
#1061400
0z
17
0_
08
1`
0?"
0-"
0'"
0}
b0 +
b0 4
b0 *
b0 |
0I"
1,
#1078800
0,
#1096200
0(
0)
1,
#1113600
0,
#1131000
0)
1,
#1148400
0,
#1165800
0)
1,
#1183200
0,
#1200600
0)
1,
#1218000
0,
#1235400
0)
1,
#1252800
0,
#1270200
0)
1,
#1287600
0,
#1305000
0)
1,
#1322400
0,
#1339800
1B"
b1 {
14"
0P
1S
0T
1W
0X
1Y
0n
11
0)
1,
#1357200
0,
#1374600
1D"
b11 {
1<"
0D
1E
0F
1G
0I
1:"
11"
1+"
1!"
b1 *
b1 |
1C"
b1 +
b1 4
0)
1,
#1392000
0,
#1409400
1F"
b111 {
1A"
0<
1=
0>
1A
0[
17"
10"
1,"
b11 +
b11 4
b11 *
b11 |
1E"
0)
1,
#1426800
0,
#1444200
1H"
b1111 {
1*"
0c
1f
0g
1k
0l
1t
1o
0v
0p
1="
1;"
1$"
1~
b111 *
b111 |
1G"
b111 +
b111 4
0)
1,
#1461600
0,
#1479000
1z
07
1_
18
0`
1?"
1-"
1'"
1}
b1111 +
b1111 4
b1111 *
b1111 |
1I"
0)
1,
#1496400
0,
#1513800
1(
1)
1,
#1531200
0,
#1548600
1,
#1566000
0,
#1583400
1,
#1600800
0,
#1618200
1,
#1635600
0,
#1653000
1,
#1670400
0,
#1687800
1,
#1705200
0,
#1722600
1,
#1740000
0,
#1757400
0H"
1B"
0*"
b111 {
14"
1c
0P
0f
1S
1g
0T
0k
1W
1l
0X
1v
1`
1Z
0u
0o
0a
0Y
1n
0w
01
1.
1,
#1774800
0,
#1792200
0F"
b11 {
0A"
1<
0=
1>
0?
1@
0?"
0-"
0'"
0}
b111 *
b111 |
0I"
b111 +
b111 4
1,
#1809600
0,
#1827000
0D"
b1 {
0<"
1D
0E
1F
0G
1H
1p
0="
0;"
0$"
0~
b11 +
b11 4
b11 *
b11 |
0G"
1,
#1844400
0,
#1861800
0B"
b0 {
04"
1P
0S
1T
0W
1X
0_
0Z
1a
1[
07"
00"
0,"
b1 *
b1 |
0E"
b1 +
b1 4
1,
#1879200
0,
#1896600
0z
17
0t
08
1u
0:"
01"
0+"
0!"
b0 +
b0 4
b0 *
b0 |
0C"
1,
#1914000
0,
#1931400
0(
0)
1,
#1948800
0,
#1966200
0)
1,
#1983600
0,
#2001000
0)
1,
#2018400
0,
#2035800
0)
1,
#2053200
0,
#2070600
0)
1,
#2088000
0,
#2105400
0)
1,
#2122800
0,
#2140200
0)
1,
#2157600
0,
#2175000
1H"
b1000 {
1*"
0c
1f
0g
1k
0l
1m
0n
11
0)
1,
#2192400
0,
#2209800
1F"
b1100 {
1A"
0<
1=
0>
1?
0@
1?"
1-"
1'"
1}
b1000 *
b1000 |
1I"
b1000 +
b1000 4
0)
1,
#2227200
0,
#2244600
1D"
b1110 {
1<"
0D
1E
0F
1G
0H
0p
1="
1;"
1$"
1~
b1100 +
b1100 4
b1100 *
b1100 |
1G"
0)
1,
#2262000
0,
#2279400
1B"
14"
0H"
b111 {
0*"
0P
1c
1S
0f
0T
1g
1W
0k
0X
1_
1l
1Z
0a
0m
0[
17"
10"
1,"
1n
b1110 *
b1110 |
1E"
b1110 +
b1110 4
01
0)
1,
#2296800
0,
#2314200
0F"
b11 {
0A"
1<
0=
1z
1>
07
0?
1t
18
1@
0u
0?"
0-"
0'"
0}
1:"
11"
1+"
1!"
b111 +
b111 4
0I"
b111 *
b111 |
1C"
0)
1,
#2331600
0,
#2349000
1H"
1*"
0D"
b1001 {
0<"
0c
1D
1f
0E
0g
1F
1k
0G
0l
1H
1m
1p
0="
0;"
0$"
0~
0n
b11 *
b11 |
0G"
1(
b11 +
b11 4
11
1)
1,
#2366400
0,
#2383800
0B"
04"
1F"
1P
b1100 {
1A"
0S
0<
1T
1=
0W
0>
1X
1?
0_
0Z
0@
1a
1[
1?"
1-"
1'"
1}
07"
00"
0,"
b1001 +
b1001 4
1I"
b1001 *
b1001 |
0E"
1,
#2401200
0,
#2418600
0H"
0*"
1D"
b110 {
1<"
1c
0D
0f
0z
1E
1g
17
0F
0k
0t
08
1G
1l
1u
0H
0m
0p
0:"
01"
0+"
0!"
1="
1;"
1$"
1~
1n
0C"
b1100 *
b1100 |
1G"
b1100 +
b1100 4
01
1,
#2436000
0,
#2453400
1B"
14"
0F"
0P
b11 {
0A"
1S
1<
0T
0=
1W
1>
0X
0?
1_
1Z
1@
0a
0[
0?"
0-"
0'"
0}
17"
10"
1,"
0)
b110 +
b110 4
0(
0I"
b110 *
b110 |
1E"
1,
#2470800
0,
#2488200
0D"
b1 {
0<"
1D
1z
0E
07
1F
1t
18
0G
0u
1H
1p
1:"
11"
1+"
1!"
0="
0;"
0$"
0~
1C"
b11 *
b11 |
0G"
b11 +
b11 4
0)
1,
#2505600
0,
#2523000
0B"
b0 {
04"
1P
0S
1T
0W
1X
0_
0Z
1a
1[
07"
00"
0,"
b1 +
b1 4
1(
b1 *
b1 |
0E"
1)
1,
#2540400
0,
#2557800
0z
17
0t
08
1u
0:"
01"
0+"
0!"
b0 *
b0 |
0C"
b0 +
b0 4
1,
#2575200
0,
#2592600
0)
0(
1,
#2610000
0,
#2627400
0)
1,
#2644800
0,
#2662200
0)
1,
#2679600
0,
#2697000
0)
1,
#2714400
0,
#2731800
0)
1,
#2749200
0,
#2766600
0)
1,
#2784000
0,
#2801400
0)
1,
#2818800
0,
#2836200
0)
1,
#2853600
0,
#2871000
0)
1,
#2888400
0,
#2905800
0)
1,
#2923200
0,
#2940600
0)
1,
#2958000
0,
#2975400
0)
1,
#2992800
0,
#3010200
0)
1,
#3027600
0,
#3045000
1B"
14"
1D"
1F"
1<"
b111 {
1A"
0P
0D
0<
1f
1S
07
1E
1=
1:
0g
0d
0T
19
0K
0B
0;
xG
1h
1e
1U
1L
1\
xH
xA
x@
0j
0]
xI
0J
xw
0)"
13"
18"
1>"
1#"
1&"
1("
1/"
12"
16"
19"
1@"
x.
b111 -
b111 2
b111 5
b10 0
b10 3
b10 6
0)
1,
#3062400
0,
#3079800
xk
xl
xX
x_
1G
xt
x8
xo
xZ
1A
0H
xv
xa
0I
0V
xu
0p
0[
1="
1;"
1$"
1~
17"
10"
1,"
1:"
11"
1+"
1!"
b111 +
b111 4
1G"
1E"
b111 *
b111 |
1C"
1,
#3097200
0,
#3114600
1,
#3132000
0,
#3149400
1,
#3166800
0,
#3184200
1,
#3201600
0,
#3219000
1,
#3236400
0,
#3253800
1H"
0B"
1D"
1F"
0S
1*"
04"
1<"
b1110 {
1A"
1f
1g
1T
0c
1P
0D
0<
0q
1t
1X
0h
0U
0>
1d
1Q
1E
1=
08
0l
0_
1r
0L
0F
0v
0Z
0@
0k
1j
1V
1?
0e
0R
1K
1B
1u
1o
1a
0s
1J
1w
1""
0#"
1%"
0&"
0("
1."
0/"
02"
15"
06"
09"
0@"
z)"
z3"
z8"
z>"
0.
b1 0
b1 3
b1 6
bz -
bz 2
bz 5
1,
#3271200
0,
#3288600
1B"
0D"
14"
b1101 {
0<"
0P
1D
1S
0E
0^
1F
1_
18
0G
0`
1I
1?"
1-"
1'"
1}
0:"
01"
0+"
0!"
b1110 +
b1110 4
1I"
b1110 *
b1110 |
0C"
1,
#3306000
0,
#3323400
1D"
1<"
0F"
b1011 {
0A"
0D
1<
1E
0=
0F
1>
1G
0A
0I
1[
1:"
11"
1+"
1!"
07"
00"
0,"
1C"
b1101 *
b1101 |
0E"
b1101 +
b1101 4
1,
#3340800
0,
#3358200
0H"
0*"
1F"
b111 {
1A"
1c
0<
0f
1=
1q
1l
0>
0t
0o
1A
1v
1p
0[
0="
0;"
0$"
0~
17"
10"
1,"
b1011 +
b1011 4
0G"
b1011 *
b1011 |
1E"
1,
#3375600
0,
#3393000
1H"
0B"
1*"
b1110 {
04"
0c
1P
1f
0S
0q
1^
0l
1t
0_
08
1o
0v
1`
0p
1="
1;"
1$"
1~
0?"
0-"
0'"
0}
1G"
b111 *
b111 |
0I"
b111 +
b111 4
1,
#3410400
0,
#3427800
1B"
0D"
14"
b1101 {
0<"
0P
1D
1S
0E
0^
1F
1_
18
0G
0`
1I
1?"
1-"
1'"
1}
0:"
01"
0+"
0!"
b1110 +
b1110 4
1I"
b1110 *
b1110 |
0C"
1,
#3445200
0,
#3462600
1D"
1<"
0F"
b1011 {
0A"
0D
1<
1E
0=
0F
1>
1G
0A
0I
1[
1:"
11"
1+"
1!"
07"
00"
0,"
1C"
b1101 *
b1101 |
0E"
b1101 +
b1101 4
1,
#3480000
0,
#3497400
0H"
0*"
1F"
b111 {
1A"
1c
0<
0f
1=
1q
1l
0>
0t
0o
1A
1v
1p
0[
0="
0;"
0$"
0~
17"
10"
1,"
b1011 +
b1011 4
0G"
b1011 *
b1011 |
1E"
1,
#3514800
0,
#3532200
1H"
0B"
1*"
b1110 {
04"
0c
1P
1f
0S
0q
1^
0l
1t
0_
08
1o
0v
1`
0p
1="
1;"
1$"
1~
0?"
0-"
0'"
0}
1G"
b111 *
b111 |
0I"
b111 +
b111 4
1,
#3549600
0,
#3567000
1B"
0D"
14"
b1101 {
0<"
0P
1D
1S
0E
0^
1F
1_
18
0G
0`
1I
1?"
1-"
1'"
1}
0:"
01"
0+"
0!"
b1110 +
b1110 4
1I"
b1110 *
b1110 |
0C"
1,
#3584400
0,
#3601800
1D"
1<"
0F"
b1011 {
0A"
0D
1<
1E
0=
0F
1>
1G
0A
0I
1[
1:"
11"
1+"
1!"
07"
00"
0,"
1C"
b1101 *
b1101 |
0E"
b1101 +
b1101 4
1,
#3619200
0,
#3636600
0H"
0*"
1F"
b111 {
1A"
1c
0<
0f
1=
1q
1l
0>
0t
0o
1A
1v
1p
0[
0="
0;"
0$"
0~
17"
10"
1,"
b1011 +
b1011 4
0G"
b1011 *
b1011 |
1E"
1,
#3654000
0,
#3671400
0F"
0A"
1H"
b1011 {
1*"
1<
0c
0=
1f
1>
0q
0X
0?
1t
1`
1Z
1@
0p
0u
0a
1="
1;"
1$"
1~
0?"
0-"
0'"
0}
0w
1G"
b111 *
b111 |
0I"
b111 +
b111 4
1.
1,
#3688800
0,
#3706200
1F"
0D"
1A"
b1101 {
0<"
0<
1D
1=
0E
0>
1F
1?
0G
0@
1H
1p
1?"
1-"
1'"
1}
0="
0;"
0$"
0~
b1011 +
b1011 4
1I"
b1011 *
b1011 |
0G"
1,
#3723600
0,
#3741000
0B"
1D"
04"
b1110 {
1<"
1P
0D
0S
1E
1^
0F
1X
0_
1G
0Z
1a
0H
1[
0p
07"
00"
0,"
1="
1;"
1$"
1~
0E"
b1101 *
b1101 |
1G"
b1101 +
b1101 4
1,
#3758400
0,
#3775800
1B"
0H"
14"
b111 {
0*"
0P
1c
1S
0f
0^
1q
0X
1_
0t
08
1Z
0a
1u
0[
17"
10"
1,"
0:"
01"
0+"
0!"
b1110 +
b1110 4
1E"
b1110 *
b1110 |
0C"
1,
#3793200
0,
#3810600
1H"
0F"
1*"
b1011 {
0A"
0c
1<
1f
0=
0q
1>
1t
18
0?
0u
1@
1:"
11"
1+"
1!"
0?"
0-"
0'"
0}
1C"
b111 *
b111 |
0I"
b111 +
b111 4
1,
#3828000
0,
#3845400
1F"
0D"
1A"
b1101 {
0<"
0<
1D
1=
0E
0>
1F
1?
0G
0@
1H
1p
1?"
1-"
1'"
1}
0="
0;"
0$"
0~
b1011 +
b1011 4
1I"
b1011 *
b1011 |
0G"
1,
#3862800
0,
#3880200
0B"
1D"
04"
b1110 {
1<"
1P
0D
0S
1E
1^
0F
1X
0_
1G
0Z
1a
0H
1[
0p
07"
00"
0,"
1="
1;"
1$"
1~
0E"
b1101 *
b1101 |
1G"
b1101 +
b1101 4
1,
#3897600
0,
#3915000
1B"
0H"
14"
b111 {
0*"
0P
1c
1S
0f
0^
1q
0X
1_
0t
08
1Z
0a
1u
0[
17"
10"
1,"
0:"
01"
0+"
0!"
b1110 +
b1110 4
1E"
b1110 *
b1110 |
0C"
1,
#3932400
0,
#3949800
1H"
0F"
1*"
b1011 {
0A"
0c
1<
1f
0=
0q
1>
1t
18
0?
0u
1@
1:"
11"
1+"
1!"
0?"
0-"
0'"
0}
1C"
b111 *
b111 |
0I"
b111 +
b111 4
1,
#3967200
0,
