tarea5/testT5.vcd
$date
	Sun Sep 10 19:55:38 2017
$end
$version
	Icarus Verilog
$end
$timescale
	1ps
$end
$scope module BUF $end
$var wire 1 ! A $end
$var wire 1 " Y $end
$upscope $end
$scope module DFF $end
$var wire 1 # C $end
$var wire 1 $ D $end
$var reg 1 % Q $end
$upscope $end
$scope module DFFSR $end
$var wire 1 & C $end
$var wire 1 ' D $end
$var wire 1 ( R $end
$var wire 1 ) S $end
$var reg 1 * Q $end
$upscope $end
$scope module NAND $end
$var wire 1 + A $end
$var wire 1 , B $end
$var wire 1 - Y $end
$upscope $end
$scope module NOR $end
$var wire 1 . A $end
$var wire 1 / B $end
$var wire 1 0 Y $end
$upscope $end
$scope module NOT $end
$var wire 1 1 A $end
$var wire 1 2 Y $end
$upscope $end
$scope module testregistro4bits $end
$var wire 1 3 s_oute $end
$var wire 1 4 s_outc $end
$var wire 4 5 qe [3:0] $end
$var wire 4 6 qc [3:0] $end
$var reg 1 7 clk $end
$var reg 4 8 d [3:0] $end
$var reg 1 9 dir $end
$var reg 1 : enb $end
$var reg 2 ; modo [1:0] $end
$var reg 1 < s_in $end
$scope module conductual $end
$var wire 1 7 CLK $end
$var wire 4 = D [3:0] $end
$var wire 1 9 DIR $end
$var wire 1 : ENB $end
$var wire 2 > MODE [1:0] $end
$var wire 1 < S_IN $end
$var reg 4 ? Q [3:0] $end
$var reg 1 4 S_OUT $end
$upscope $end
$scope module estructural $end
$var wire 1 7 CLK $end
$var wire 4 @ D [3:0] $end
$var wire 1 9 DIR $end
$var wire 1 : ENB $end
$var wire 2 A MODE [1:0] $end
$var wire 1 < S_IN $end
$var wire 1 B _05_ $end
$var wire 1 C _06_ $end
$var wire 1 D _07_ $end
$var wire 1 E _22_ $end
$var wire 2 F _21_ [1:0] $end
$var wire 2 G _20_ [1:0] $end
$var wire 2 H _19_ [1:0] $end
$var wire 2 I _18_ [1:0] $end
$var wire 1 J _17_ $end
$var wire 1 K _16_ $end
$var wire 1 L _15_ $end
$var wire 1 M _14_ $end
$var wire 1 N _13_ $end
$var wire 1 O _12_ $end
$var wire 1 P _11_ $end
$var wire 1 Q _10_ $end
$var wire 1 R _09_ $end
$var wire 1 S _08_ $end
$var wire 2 T _04_ [1:0] $end
$var wire 2 U _03_ [1:0] $end
$var wire 1 V _02_ $end
$var wire 1 W _01_ $end
$var wire 4 X _00_ [3:0] $end
$var reg 4 Y Q [3:0] $end
$var reg 1 3 S_OUT $end
$upscope $end
$upscope $end
$enddefinitions $end
#0
$dumpvars
bx Y
bx X
xW
xV
bzx U
bxz T
xS
xR
xQ
xP
xO
xN
xM
xL
xK
xJ
bx I
bx H
bx G
bx F
xE
xD
xC
xB
bx A
bx @
bx ?
bx >
bx =
x<
bx ;
x:
x9
bx 8
x7
bx 6
bx 5
x4
x3
z2
z1
x0
z/
z.
x-
z,
z+
x*
z)
z(
z'
z&
x%
z$
z#
z"
z!
$end
#50000
07
#52200
1C
1D
0B
bz1 U
b1z T
b0 ;
b0 >
b0 A
17
#69600
07
#87000
b0 X
0O
0J
b0 F
0D
1B
b0z T
b0 8
b0 =
b0 @
b10 ;
b10 >
b10 A
1:
17
#104400
07
#121800
b0 G
0K
0P
0M
0Q
b0 H
0R
0L
b0 I
0E
b0 5
b0 Y
b0 6
b0 ?
17
#139200
07
#156600
b1 X
1J
b1 8
b1 =
b1 @
17
#174000
07
#191400
1K
xQ
1M
b0x I
xE
b1 5
b1 Y
b1 6
b1 ?
17
#208800
07
#226200
b10 X
0J
b1 F
b10 8
b10 =
b10 @
17
#243600
07
#261000
b1 G
0K
0Q
0M
0E
xL
b1 H
bx0 I
b10 5
b10 Y
b10 6
b10 ?
17
#278400
07
#295800
b100 X
b10 F
b100 8
b100 =
b100 @
17
#313200
07
#330600
b10 G
0L
xQ
b10 H
b0x I
b100 5
b100 Y
b100 6
b100 ?
17
#348000
07
#365400
b1000 X
1O
b0 F
b1000 8
b1000 =
b1000 @
17
#382800
07
#400200
b0 G
1P
0Q
b0 H
1R
xL
bx0 I
xE
b1000 5
b1000 Y
b1000 6
b1000 ?
17
#417600
07
#435000
b0 X
0O
b0 8
b0 =
b0 @
17
#452400
07
#469800
0P
0R
0L
b0 I
0E
b0 5
b0 Y
b0 6
b0 ?
17
#487200
07
#504600
b1 X
1J
b1 8
b1 =
b1 @
17
#522000
07
#539400
1K
xQ
1M
b0x I
xE
b1 5
b1 Y
b1 6
b1 ?
17
#556800
07
#574200
b11 X
b1 F
b11 8
b11 =
b11 @
17
#591600
07
#609000
b1 G
xL
b1 H
bx I
b11 5
b11 Y
b11 6
b11 ?
17
#626400
07
#643800
b111 X
b11 F
b111 8
b111 =
b111 @
17
#661200
07
#678600
b11 G
1Q
b11 H
bx1 I
b111 5
b111 Y
b111 6
b111 ?
17
#696000
07
#713400
b1111 X
1O
b1111 8
b1111 =
b1111 @
17
#730800
07
#748200
1P
1R
1L
b11 I
1E
b1111 5
b1111 Y
b1111 6
b1111 ?
17
#765600
07
#783000
17
#800400
07
#817800
17
#835200
07
#852600
17
#870000
07
#887400
17
#904800
07
#922200
0K
1W
1D
0M
1V
b1110 X
0B
b1z T
1O
0J
b11 F
1S
0N
0<
09
b0 ;
b0 >
b0 A
bz 8
bz =
bz @
17
#939600
07
#957000
b1100 X
b10 F
b10 G
b10 H
b10 I
b1110 5
b1110 Y
13
b1110 6
b1110 ?
14
17
#974400
07
#991800
b1000 X
b0 F
b0 G
b0 H
b0 I
b1100 6
b1100 ?
b1100 5
b1100 Y
17
#1009200
07
#1026600
b0 X
0O
0P
0R
0S
0Q
b1000 5
b1000 Y
b1000 6
b1000 ?
17
#1044000
07
#1061400
0W
0V
0L
0E
b0 6
b0 ?
b0 5
b0 Y
17
#1078800
07
#1096200
03
04
17
#1113600
07
#1131000
04
17
#1148400
07
#1165800
04
17
#1183200
07
#1200600
04
17
#1218000
07
#1235400
04
17
#1252800
07
#1270200
04
17
#1287600
07
#1305000
04
17
#1322400
07
#1339800
b1 X
1J
1K
1M
1N
1<
04
17
#1357200
07
#1374600
b11 X
b1 F
b1 G
b1 H
b1 I
b1 5
b1 Y
b1 6
b1 ?
04
17
#1392000
07
#1409400
b111 X
b11 F
b11 G
b11 H
b11 I
b11 6
b11 ?
b11 5
b11 Y
04
17
#1426800
07
#1444200
b1111 X
1O
1P
1R
1S
1Q
b111 5
b111 Y
b111 6
b111 ?
04
17
#1461600
07
#1479000
1W
1V
1L
1E
b1111 6
b1111 ?
b1111 5
b1111 Y
04
17
#1496400
07
#1513800
13
14
17
#1531200
07
#1548600
17
#1566000
07
#1583400
17
#1600800
07
#1618200
17
#1635600
07
#1653000
17
#1670400
07
#1687800
17
#1705200
07
#1722600
17
#1740000
07
#1757400
b111 X
0O
0P
0R
0S
0<
19
17
#1774800
07
#1792200
b11 X
b1 F
b1 G
b1 H
b1 I
b111 5
b111 Y
b111 6
b111 ?
17
#1809600
07
#1827000
b1 X
b0 F
b0 G
b0 H
b0 I
b11 6
b11 ?
b11 5
b11 Y
17
#1844400
07
#1861800
b0 X
0J
0K
0M
0N
0L
b1 5
b1 Y
b1 6
b1 ?
17
#1879200
07
#1896600
0W
0V
0Q
0E
b0 6
b0 ?
b0 5
b0 Y
17
#1914000
07
#1931400
03
04
17
#1948800
07
#1966200
04
17
#1983600
07
#2001000
04
17
#2018400
07
#2035800
04
17
#2053200
07
#2070600
04
17
#2088000
07
#2105400
04
17
#2122800
07
#2140200
04
17
#2157600
07
#2175000
b1000 X
1O
1P
1R
1S
1<
04
17
#2192400
07
#2209800
b1100 X
b10 F
b10 G
b10 H
b10 I
b1000 5
b1000 Y
b1000 6
b1000 ?
04
17
#2227200
07
#2244600
b1110 X
b11 F
b11 G
b11 H
b11 I
b1100 6
b1100 ?
b1100 5
b1100 Y
04
17
#2262000
07
#2279400
1J
b111 X
1K
0O
1M
0P
1N
1L
0R
0S
b1110 5
b1110 Y
b1110 6
b1110 ?
0<
04
17
#2296800
07
#2314200
b11 X
b1 F
b1 G
b1 H
1W
1V
b1 I
1Q
1E
b111 6
b111 ?
b111 5
b111 Y
04
17
#2331600
07
#2349000
b0 F
b0 G
b1001 X
b0 H
1O
1P
b0 I
1R
1S
b11 5
b11 Y
13
b11 6
b11 ?
1<
14
17
#2366400
07
#2383800
b10 F
b10 G
b1100 X
0J
b10 H
0K
0M
b10 I
0N
0L
b1001 6
b1001 ?
b1001 5
b1001 Y
17
#2401200
07
#2418600
b11 F
b11 G
b110 X
0W
b11 H
0O
0V
0P
0Q
0E
b11 I
0R
0S
b1100 5
b1100 Y
b1100 6
b1100 ?
0<
17
#2436000
07
#2453400
b1 F
b1 G
b11 X
1J
b1 H
1K
1M
b1 I
1N
1L
04
b110 6
b110 ?
03
b110 5
b110 Y
17
#2470800
07
#2488200
b1 X
b0 F
b0 G
1W
b0 H
1V
1Q
1E
b0 I
b11 5
b11 Y
b11 6
b11 ?
04
17
#2505600
07
#2523000
b0 X
0J
0K
0M
0N
0L
b1 6
b1 ?
13
b1 5
b1 Y
14
17
#2540400
07
#2557800
0W
0V
0Q
0E
b0 5
b0 Y
b0 6
b0 ?
17
#2575200
07
#2592600
04
03
17
#2610000
07
#2627400
04
17
#2644800
07
#2662200
04
17
#2679600
07
#2697000
04
17
#2714400
07
#2731800
04
17
#2749200
07
#2766600
04
17
#2784000
07
#2801400
04
17
#2818800
07
#2836200
04
17
#2853600
07
#2871000
04
17
#2888400
07
#2905800
04
17
#2923200
07
#2940600
04
17
#2958000
07
#2975400
04
17
#2992800
07
#3010200
04
17
#3027600
07
#3045000
b111 X
1J
b11 F
0D
1B
b0z T
x9
b111 8
b111 =
b111 @
b10 ;
b10 >
b10 A
04
17
#3062400
07
#3079800
b11 G
1K
xS
xN
xL
b11 H
1Q
1M
bx1 I
xE
b111 6
b111 ?
b111 5
b111 Y
17
#3097200
07
#3114600
17
#3132000
07
#3149400
17
#3166800
07
#3184200
17
#3201600
07
#3219000
17
#3236400
07
#3253800
1P
0K
0C
b1110 X
1D
bz0 U
b1z T
1O
0J
b11 F
1S
0N
0L
b11 I
0E
09
b1 ;
b1 >
b1 A
bz 8
bz =
bz @
17
#3271200
07
#3288600
b10 F
b1101 X
1J
b10 G
1K
1R
1L
1E
0M
b10 I
b1110 6
b1110 ?
b1110 5
b1110 Y
17
#3306000
07
#3323400
b1011 X
b1 F
b1 G
1M
b10 H
b1 I
b1101 5
b1101 Y
b1101 6
b1101 ?
17
#3340800
07
#3358200
b11 F
b111 X
0O
b11 G
0P
0S
0Q
b1 H
b11 I
b1011 6
b1011 ?
b1011 5
b1011 Y
17
#3375600
07
#3393000
b1110 X
1O
0J
1P
0K
1S
1Q
b11 H
0R
0L
0E
b111 5
b111 Y
b111 6
b111 ?
17
#3410400
07
#3427800
b10 F
b1101 X
1J
b10 G
1K
1R
1L
1E
0M
b10 I
b1110 6
b1110 ?
b1110 5
b1110 Y
17
#3445200
07
#3462600
b1011 X
b1 F
b1 G
1M
b10 H
b1 I
b1101 5
b1101 Y
b1101 6
b1101 ?
17
#3480000
07
#3497400
b11 F
b111 X
0O
b11 G
0P
0S
0Q
b1 H
b11 I
b1011 6
b1011 ?
b1011 5
b1011 Y
17
#3514800
07
#3532200
b1110 X
1O
0J
1P
0K
1S
1Q
b11 H
0R
0L
0E
b111 5
b111 Y
b111 6
b111 ?
17
#3549600
07
#3567000
b10 F
b1101 X
1J
b10 G
1K
1R
1L
1E
0M
b10 I
b1110 6
b1110 ?
b1110 5
b1110 Y
17
#3584400
07
#3601800
b1011 X
b1 F
b1 G
1M
b10 H
b1 I
b1101 5
b1101 Y
b1101 6
b1101 ?
17
#3619200
07
#3636600
b11 F
b111 X
0O
b11 G
0P
0S
0Q
b1 H
b11 I
b1011 6
b1011 ?
b1011 5
b1011 Y
17
#3654000
07
#3671400
b1 F
b1011 X
1O
b1 G
b11 H
0R
1P
1Q
1N
b1 I
b111 5
b111 Y
b111 6
b111 ?
19
17
#3688800
07
#3706200
b1101 X
b10 F
b10 G
1R
b1 H
b10 I
b1011 6
b1011 ?
b1011 5
b1011 Y
17
#3723600
07
#3741000
b11 F
b1110 X
0J
b11 G
0K
0N
0L
b10 H
b11 I
b1101 5
b1101 Y
b1101 6
b1101 ?
17
#3758400
07
#3775800
b111 X
1J
0O
1K
0P
1N
1L
b11 H
0Q
0M
0E
b1110 6
b1110 ?
b1110 5
b1110 Y
17
#3793200
07
#3810600
b1 F
b1011 X
1O
b1 G
1P
1Q
1M
1E
0R
b1 I
b111 5
b111 Y
b111 6
b111 ?
17
#3828000
07
#3845400
b1101 X
b10 F
b10 G
1R
b1 H
b10 I
b1011 6
b1011 ?
b1011 5
b1011 Y
17
#3862800
07
#3880200
b11 F
b1110 X
0J
b11 G
0K
0N
0L
b10 H
b11 I
b1101 5
b1101 Y
b1101 6
b1101 ?
17
#3897600
07
#3915000
b111 X
1J
0O
1K
0P
1N
1L
b11 H
0Q
0M
0E
b1110 6
b1110 ?
b1110 5
b1110 Y
17
#3932400
07
#3949800
b1 F
b1011 X
1O
b1 G
1P
1Q
1M
1E
0R
b1 I
b111 5
b111 Y
b111 6
b111 ?
17
#3967200
07
#3984600
b1101 X
b10 F
b10 G
1R
b1 H
b10 I
b1011 6
b1011 ?
b1011 5
b1011 Y
17
#4002000
07
#4019400
b11 F
b1110 X
0J
b11 G
0K
0N
0L
b10 H
b11 I
b1101 5
b1101 Y
b1101 6
b1101 ?
17
#4036800
07
#4054200
b111 X
1J
0O
1K
0P
1N
1L
b11 H
0Q
0M
0E
b1110 6
b1110 ?
b1110 5
b1110 Y
17
#4071600
07
#4089000
b1 F
b1011 X
1O
b1 G
1P
1Q
1M
1E
0R
b1 I
b111 5
b111 Y
b111 6
b111 ?
17
#4106400
07
#4123800
b1101 X
b10 F
b10 G
1R
b1 H
b10 I
b1011 6
b1011 ?
b1011 5
b1011 Y
17
#4141200
07
#4158600
b11 F
b1110 X
0J
b11 G
0K
0N
0L
b10 H
b11 I
b1101 5
b1101 Y
b1101 6
b1101 ?
17
#4176000
07
#4193400
b111 X
1J
0O
1K
0P
1N
1L
b11 H
0Q
0M
0E
b1110 6
b1110 ?
b1110 5
b1110 Y
17
#4210800
07
#4228200
b1 F
b1011 X
1O
b1 G
1P
1Q
1M
1E
0R
b1 I
b111 5
b111 Y
b111 6
b111 ?
17
