tarea5/testT5.vcd
$date
	Sun Sep 10 13:33:45 2017
$end
$version
	Icarus Verilog
$end
$timescale
	1ps
$end
$scope module testregistro4bits $end
$var wire 1 ! s_oute $end
$var wire 1 " s_outc $end
$var wire 4 # qe [3:0] $end
$var wire 4 $ qc [3:0] $end
$var reg 1 % clk $end
$var reg 4 & d [3:0] $end
$var reg 1 ' dir $end
$var reg 1 ( enb $end
$var reg 2 ) modo [1:0] $end
$var reg 1 * s_in $end
$scope module conductual $end
$var wire 1 % CLK $end
$var wire 4 + D [3:0] $end
$var wire 1 ' DIR $end
$var wire 1 ( ENB $end
$var wire 2 , MODE [1:0] $end
$var wire 1 * S_IN $end
$var reg 4 - Q [3:0] $end
$var reg 1 " S_OUT $end
$upscope $end
$scope module estructural $end
$var wire 1 . _02_ $end
$var wire 1 / _04_ $end
$var wire 1 % clk $end
$var wire 4 0 d [3:0] $end
$var wire 1 ' dir $end
$var wire 1 ( enb $end
$var wire 2 1 modo [1:0] $end
$var wire 1 * s_in $end
$var wire 4 2 _09_ [3:0] $end
$var wire 4 3 _08_ [3:0] $end
$var wire 1 4 _07_ $end
$var wire 4 5 _06_ [3:0] $end
$var wire 4 6 _05_ [3:0] $end
$var wire 2 7 _03_ [1:0] $end
$var wire 1 8 _01_ $end
$var wire 4 9 _00_ [3:0] $end
$var reg 4 : q [3:0] $end
$var reg 1 ! s_out $end
$upscope $end
$upscope $end
$enddefinitions $end
#0
$dumpvars
bx :
bx 9
x8
bzx 7
bx 6
bx 5
x4
bx 3
bxzzx 2
bx 1
bx 0
x/
x.
bx -
bx ,
bx +
x*
bx )
x(
x'
bx &
x%
bx $
bx #
x"
x!
$end
#50000
0%
#52200
1/
0.
bz1 7
b0 )
b0 ,
b0 1
1%
#69600
0%
#87000
08
1.
b0 &
b0 +
b0 0
b10 )
b10 ,
b10 1
1(
1%
#104400
0%
#121800
0!
b0 $
b0 -
1%
#139200
0%
#156600
b1 &
b1 +
b1 0
1%
#174000
0%
#191400
b1 $
b1 -
1%
#208800
0%
#226200
b10 &
b10 +
b10 0
1%
#243600
0%
#261000
b10 $
b10 -
1%
#278400
0%
#295800
b100 &
b100 +
b100 0
1%
#313200
0%
#330600
b100 $
b100 -
1%
#348000
0%
#365400
b1000 &
b1000 +
b1000 0
1%
#382800
0%
#400200
b1000 $
b1000 -
1%
#417600
0%
#435000
b0 &
b0 +
b0 0
1%
#452400
0%
#469800
b0 $
b0 -
1%
#487200
0%
#504600
b1 &
b1 +
b1 0
1%
#522000
0%
#539400
b1 $
b1 -
1%
#556800
0%
#574200
b11 &
b11 +
b11 0
1%
#591600
0%
#609000
b11 $
b11 -
1%
#626400
0%
#643800
b111 &
b111 +
b111 0
1%
#661200
0%
#678600
b111 $
b111 -
1%
#696000
0%
#713400
b1111 &
b1111 +
b1111 0
1%
#730800
0%
#748200
b1111 $
b1111 -
1%
#765600
0%
#783000
1%
#800400
0%
#817800
1%
#835200
0%
#852600
1%
#870000
0%
#887400
1%
#904800
0%
#922200
bx0 9
x8
bx0 5
0.
bx0 3
0*
0'
b0 )
b0 ,
b0 1
bz &
bz +
bz 0
1%
#939600
0%
#957000
bx00 9
bx00 5
bx0 6
bx00 3
bx0 #
bx0 :
x!
b1110 $
b1110 -
1"
1%
#974400
0%
#991800
bx000 9
bx000 5
bx00 6
bx000 3
b1100 $
b1100 -
bx00 #
bx00 :
1%
#1009200
0%
#1026600
b0 9
b0 5
bx000 6
b0 3
b0zzx 2
bx000 #
bx000 :
b1000 $
b1000 -
1%
#1044000
0%
#1061400
08
b0 6
04
b0zz0 2
b0 $
b0 -
b0 #
b0 :
1%
#1078800
0%
#1096200
0!
0"
1%
#1113600
0%
#1131000
0"
1%
#1148400
0%
#1165800
0"
1%
#1183200
0%
#1200600
0"
1%
#1218000
0%
#1235400
0"
1%
#1252800
0%
#1270200
0"
1%
#1287600
0%
#1305000
0"
1%
#1322400
0%
#1339800
b1 9
b1 5
b1 3
1*
0"
1%
#1357200
0%
#1374600
b11 9
b11 5
b1 6
b11 3
b1 #
b1 :
b1 $
b1 -
0"
1%
#1392000
0%
#1409400
b111 9
b111 5
b11 6
b111 3
b11 $
b11 -
b11 #
b11 :
0"
1%
#1426800
0%
#1444200
b1111 9
b1111 5
b111 6
b1111 3
b1zz0 2
b111 #
b111 :
b111 $
b111 -
0"
1%
#1461600
0%
#1479000
18
b1111 6
14
b1zz1 2
b1111 $
b1111 -
b1111 #
b1111 :
0"
1%
#1496400
0%
#1513800
1!
1"
1%
#1531200
0%
#1548600
1%
#1566000
0%
#1583400
1%
#1600800
0%
#1618200
1%
#1635600
0%
#1653000
1%
#1670400
0%
#1687800
1%
#1705200
0%
#1722600
1%
#1740000
0%
#1757400
b111 9
b111 5
b111 3
0*
1'
1%
#1774800
0%
#1792200
b11 9
b11 5
b111 6
b11 3
b111 #
b111 :
b111 $
b111 -
1%
#1809600
0%
#1827000
b1 9
b1 5
b11 6
b1 3
b11 $
b11 -
b11 #
b11 :
1%
#1844400
0%
#1861800
b0 9
b0 5
b1 6
b0 3
b1zz0 2
b1 #
b1 :
b1 $
b1 -
1%
#1879200
0%
#1896600
08
b0 6
04
b0zz0 2
b0 $
b0 -
b0 #
b0 :
1%
#1914000
0%
#1931400
0!
0"
1%
#1948800
0%
#1966200
0"
1%
#1983600
0%
#2001000
0"
1%
#2018400
0%
#2035800
0"
1%
#2053200
0%
#2070600
0"
1%
#2088000
0%
#2105400
0"
1%
#2122800
0%
#2140200
0"
1%
#2157600
0%
#2175000
b1000 9
b1000 5
b1000 3
1*
0"
1%
#2192400
0%
#2209800
b1100 9
b1100 5
b1000 6
b1100 3
b1000 #
b1000 :
b1000 $
b1000 -
0"
1%
#2227200
0%
#2244600
b1110 9
b1110 5
b1100 6
b1110 3
b1100 $
b1100 -
b1100 #
b1100 :
0"
1%
#2262000
0%
#2279400
b111 9
b111 5
b1110 6
b0zz1 2
b111 3
b1110 #
b1110 :
b1110 $
b1110 -
0*
0"
1%
#2296800
0%
#2314200
b11 9
b11 5
18
b11 3
b111 6
14
b1zz1 2
b111 $
b111 -
b111 #
b111 :
0"
1%
#2331600
0%
#2349000
b1001 9
b1001 5
b11 6
b1001 3
b11 #
b11 :
1!
b11 $
b11 -
1*
1"
1%
#2366400
0%
#2383800
b1100 9
b1100 5
b1001 6
b1100 3
b1zz0 2
b1001 $
b1001 -
b1001 #
b1001 :
1%
#2401200
0%
#2418600
b110 9
08
b110 5
04
b0zz0 2
b1100 6
b110 3
b1100 #
b1100 :
b1100 $
b1100 -
0*
1%
#2436000
0%
#2453400
b11 9
b11 5
b110 6
b11 3
b0zz1 2
0"
b110 $
b110 -
0!
b110 #
b110 :
1%
#2470800
0%
#2488200
b1 9
b1 5
18
14
b1zz1 2
b11 6
b1 3
b11 #
b11 :
b11 $
b11 -
0"
1%
#2505600
0%
#2523000
b0 9
b0 5
b1 6
b0 3
b1zz0 2
b1 $
b1 -
1!
b1 #
b1 :
1"
1%
#2540400
0%
#2557800
08
b0 6
04
b0zz0 2
b0 #
b0 :
b0 $
b0 -
1%
#2575200
0%
#2592600
0"
0!
1%
#2610000
0%
#2627400
0"
1%
#2644800
0%
#2662200
0"
1%
#2679600
0%
#2697000
0"
1%
#2714400
0%
#2731800
0"
1%
#2749200
0%
#2766600
0"
1%
#2784000
0%
#2801400
0"
1%
#2818800
0%
#2836200
0"
1%
#2853600
0%
#2871000
0"
1%
#2888400
0%
#2905800
0"
1%
#2923200
0%
#2940600
0"
1%
#2958000
0%
#2975400
0"
1%
#2992800
0%
#3010200
0"
1%
#3027600
0%
#3045000
1.
x'
b111 &
b111 +
b111 0
b10 )
b10 ,
b10 1
0"
1%
#3062400
0%
#3079800
b111 $
b111 -
1%
#3097200
0%
#3114600
1%
#3132000
0%
#3149400
1%
#3166800
0%
#3184200
1%
#3201600
0%
#3219000
1%
#3236400
0%
#3253800
0/
bz0 7
0'
b1 )
b1 ,
b1 1
bz &
bz +
bz 0
1%
#3271200
0%
#3288600
b1110 $
b1110 -
1%
#3306000
0%
#3323400
b1101 $
b1101 -
1%
#3340800
0%
#3358200
b1011 $
b1011 -
1%
#3375600
0%
#3393000
b111 $
b111 -
1%
#3410400
0%
#3427800
b1110 $
b1110 -
1%
#3445200
0%
#3462600
b1101 $
b1101 -
1%
#3480000
0%
#3497400
b1011 $
b1011 -
1%
#3514800
0%
#3532200
b111 $
b111 -
1%
#3549600
0%
#3567000
b1110 $
b1110 -
1%
#3584400
0%
#3601800
b1101 $
b1101 -
1%
#3619200
0%
#3636600
b1011 $
b1011 -
1%
#3654000
0%
#3671400
b111 $
b111 -
1'
1%
#3688800
0%
#3706200
b1011 $
b1011 -
1%
#3723600
0%
#3741000
b1101 $
b1101 -
1%
#3758400
0%
#3775800
b1110 $
b1110 -
1%
#3793200
0%
#3810600
b111 $
b111 -
1%
#3828000
0%
#3845400
b1011 $
b1011 -
1%
#3862800
0%
#3880200
b1101 $
b1101 -
1%
#3897600
0%
#3915000
b1110 $
b1110 -
1%
#3932400
0%
#3949800
b111 $
b111 -
1%
#3967200
0%
#3984600
b1011 $
b1011 -
1%
#4002000
0%
#4019400
b1101 $
b1101 -
1%
#4036800
0%
#4054200
b1110 $
b1110 -
1%
#4071600
0%
#4089000
b111 $
b111 -
1%
#4106400
0%
#4123800
b1011 $
b1011 -
1%
#4141200
0%
#4158600
b1101 $
b1101 -
1%
#4176000
0%
#4193400
b1110 $
b1110 -
1%
#4210800
0%
#4228200
b111 $
b111 -
1%
